module gitlab.com/illemonati/4gme

go 1.18

require (
	github.com/gin-contrib/cors v1.4.0
	github.com/gin-gonic/gin v1.8.1
	github.com/go-resty/resty/v2 v2.7.0
	github.com/rs/cors/wrapper/gin v0.0.0-20221003140808-fcebdb403f4d
)

require (
	github.com/gin-contrib/sse v0.1.0 // indirect
	github.com/go-playground/locales v0.14.0 // indirect
	github.com/go-playground/universal-translator v0.18.0 // indirect
	github.com/go-playground/validator/v10 v10.11.1 // indirect
	github.com/goccy/go-json v0.9.11 // indirect
	github.com/json-iterator/go v1.1.12 // indirect
	github.com/leodido/go-urn v1.2.1 // indirect
	github.com/mattn/go-isatty v0.0.16 // indirect
	github.com/modern-go/concurrent v0.0.0-20180306012644-bacd9c7ef1dd // indirect
	github.com/modern-go/reflect2 v1.0.2 // indirect
	github.com/pelletier/go-toml/v2 v2.0.5 // indirect
	github.com/rs/cors v1.8.1 // indirect
	github.com/ugorji/go/codec v1.2.7 // indirect
	golang.org/x/crypto v0.0.0-20221012134737-56aed061732a // indirect
	golang.org/x/net v0.0.0-20221012135044-0b7e1fb9d458 // indirect
	golang.org/x/sys v0.0.0-20221010170243-090e33056c14 // indirect
	golang.org/x/text v0.3.8 // indirect
	google.golang.org/protobuf v1.28.1 // indirect
	gopkg.in/yaml.v2 v2.4.0 // indirect
)
